<session jtag_chain="DE-SoC [USB-1]" jtag_device="@2: 5CSE(BA5|MA5)/5CSTFD5D5/.. (0x02D120DD)" sof_file="output_files/SignalTapDemo.sof">
  <display_tree gui_logging_enabled="0">
    <display_branch instance="auto_signaltap_0" log="USE_GLOBAL_TEMP" signal_set="USE_GLOBAL_TEMP" trigger="USE_GLOBAL_TEMP"/>
  </display_tree>
  <global_info>
    <single attribute="active instance" value="0"/>
    <single attribute="lock mode" value="0"/>
    <multi attribute="frame size" size="2" value="1920,1057"/>
    <single attribute="jtag widget visible" value="1"/>
    <multi attribute="jtag widget size" size="2" value="325,137"/>
    <single attribute="instance widget visible" value="1"/>
    <single attribute="config widget visible" value="1"/>
    <single attribute="hierarchy widget visible" value="1"/>
    <single attribute="data log widget visible" value="1"/>
  </global_info>
  <instance enabled="true" entity_name="sld_signaltap" is_auto_node="yes" name="auto_signaltap_0" source_file="sld_signaltap.vhd">
    <node_ip_info instance_id="0" mfg_id="110" node_id="0" version="6"/>
    <position_info>
      <single attribute="active tab" value="0"/>
      <single attribute="setup vertical scroll position" value="0"/>
      <single attribute="setup horizontal scroll position" value="0"/>
      <single attribute="data vertical scroll position" value="0"/>
      <single attribute="data horizontal scroll position" value="0"/>
      <single attribute="zoom level numerator" value="1"/>
      <single attribute="zoom level denominator" value="1"/>
      <single attribute="zoom offset numerator" value="130944"/>
      <single attribute="zoom offset denominator" value="1"/>
    </position_info>
    <signal_set global_temp="1" name="signal_set: 2023/04/12 15:03:46  #0">
      <clock name="clk~inputCLKENA0" polarity="posedge" tap_mode="probeonly"/>
      <config pipeline_level="0" ram_type="AUTO" reserved_data_nodes="0" reserved_storage_qualifier_nodes="0" reserved_trigger_nodes="0" sample_depth="128" trigger_in_enable="no" trigger_out_enable="no"/>
      <top_entity/>
      <signal_vec>
        <trigger_input_vec>
          <wire name="button" tap_mode="probeonly"/>
          <wire name="levelToPulse:U1|state.NoSignal" tap_mode="probeonly"/>
          <wire name="levelToPulse:U1|state.SignalDetected" tap_mode="probeonly"/>
          <wire name="toggle:U2|led" tap_mode="probeonly"/>
        </trigger_input_vec>
        <data_input_vec>
          <wire name="button" tap_mode="probeonly"/>
          <wire name="levelToPulse:U1|state.NoSignal" tap_mode="probeonly"/>
          <wire name="levelToPulse:U1|state.SignalDetected" tap_mode="probeonly"/>
          <wire name="toggle:U2|led" tap_mode="probeonly"/>
        </data_input_vec>
        <storage_qualifier_input_vec>
          <wire name="button" tap_mode="probeonly"/>
          <wire name="levelToPulse:U1|state.NoSignal" tap_mode="probeonly"/>
          <wire name="levelToPulse:U1|state.SignalDetected" tap_mode="probeonly"/>
          <wire name="toggle:U2|led" tap_mode="probeonly"/>
        </storage_qualifier_input_vec>
      </signal_vec>
      <presentation>
        <unified_setup_data_view>
          <node data_index="0" duplicate_name_allowed="false" is_data_input="true" is_node_valid="true" is_selected="false" is_storage_input="true" is_trigger_input="true" level-0="either edge" name="button" storage_index="0" tap_mode="probeonly" trigger_index="0" type="unknown"/>
          <node data_index="1" duplicate_name_allowed="false" is_data_input="true" is_node_valid="true" is_selected="false" is_storage_input="true" is_trigger_input="true" name="levelToPulse:U1|state.NoSignal" storage_index="1" tap_mode="probeonly" trigger_index="1" type="unknown"/>
          <node data_index="2" duplicate_name_allowed="false" is_data_input="true" is_node_valid="true" is_selected="false" is_storage_input="true" is_trigger_input="true" name="levelToPulse:U1|state.SignalDetected" storage_index="2" tap_mode="probeonly" trigger_index="2" type="unknown"/>
          <node data_index="3" duplicate_name_allowed="false" is_data_input="true" is_node_valid="true" is_selected="false" is_storage_input="true" is_trigger_input="true" name="toggle:U2|led" storage_index="3" tap_mode="probeonly" trigger_index="3" type="unknown"/>
        </unified_setup_data_view>
        <data_view>
          <net data_index="0" duplicate_name_allowed="false" is_data_input="true" is_node_valid="true" is_selected="false" is_storage_input="true" is_trigger_input="true" level-0="either edge" name="button" storage_index="0" tap_mode="probeonly" trigger_index="0" type="unknown"/>
          <net data_index="1" duplicate_name_allowed="false" is_data_input="true" is_node_valid="true" is_selected="false" is_storage_input="true" is_trigger_input="true" name="levelToPulse:U1|state.NoSignal" storage_index="1" tap_mode="probeonly" trigger_index="1" type="unknown"/>
          <net data_index="2" duplicate_name_allowed="false" is_data_input="true" is_node_valid="true" is_selected="false" is_storage_input="true" is_trigger_input="true" name="levelToPulse:U1|state.SignalDetected" storage_index="2" tap_mode="probeonly" trigger_index="2" type="unknown"/>
          <net data_index="3" duplicate_name_allowed="false" is_data_input="true" is_node_valid="true" is_selected="false" is_storage_input="true" is_trigger_input="true" name="toggle:U2|led" storage_index="3" tap_mode="probeonly" trigger_index="3" type="unknown"/>
        </data_view>
        <setup_view>
          <net data_index="0" duplicate_name_allowed="false" is_data_input="true" is_node_valid="true" is_selected="false" is_storage_input="true" is_trigger_input="true" level-0="either edge" name="button" storage_index="0" tap_mode="probeonly" trigger_index="0" type="unknown"/>
          <net data_index="1" duplicate_name_allowed="false" is_data_input="true" is_node_valid="true" is_selected="false" is_storage_input="true" is_trigger_input="true" name="levelToPulse:U1|state.NoSignal" storage_index="1" tap_mode="probeonly" trigger_index="1" type="unknown"/>
          <net data_index="2" duplicate_name_allowed="false" is_data_input="true" is_node_valid="true" is_selected="false" is_storage_input="true" is_trigger_input="true" name="levelToPulse:U1|state.SignalDetected" storage_index="2" tap_mode="probeonly" trigger_index="2" type="unknown"/>
          <net data_index="3" duplicate_name_allowed="false" is_data_input="true" is_node_valid="true" is_selected="false" is_storage_input="true" is_trigger_input="true" name="toggle:U2|led" storage_index="3" tap_mode="probeonly" trigger_index="3" type="unknown"/>
        </setup_view>
        <trigger_in_editor/>
        <trigger_out_editor/>
      </presentation>
      <trigger CRC="33E398D9" attribute_mem_mode="false" gap_record="true" global_temp="1" name="trigger: 2023/04/12 15:03:46  #1" position="pre" power_up_trigger_mode="false" record_data_gap="true" segment_size="1" storage_mode="off" storage_qualifier_disabled="no" storage_qualifier_port_is_pin="true" storage_qualifier_port_name="auto_stp_external_storage_qualifier" storage_qualifier_port_tap_mode="classic" trigger_type="circular">
        <power_up_trigger position="pre" storage_qualifier_disabled="no"/>
        <events use_custom_flow_control="no">
          <level enabled="yes" name="condition1" type="basic">'button' == either edge
            <power_up enabled="yes">
            </power_up>
            <op_node/>
          </level>
        </events>
        <storage_qualifier_events>
          <transitional>1111
            <pwr_up_transitional>1111</pwr_up_transitional>
          </transitional>
          <storage_qualifier_level type="basic">
            <power_up>
            </power_up>
            <op_node/>
          </storage_qualifier_level>
          <storage_qualifier_level type="basic">
            <power_up>
            </power_up>
            <op_node/>
          </storage_qualifier_level>
          <storage_qualifier_level type="basic">
            <power_up>
            </power_up>
            <op_node/>
          </storage_qualifier_level>
        </storage_qualifier_events>
        <log>
          <data global_temp="1" name="log: Trig @ 2023/04/12 15:08:50 (0:0:0.9 elapsed)" power_up_mode="false" sample_depth="128" trigger_position="16">10011001100110011001100110011001100110011001100110011001100110010001011101000100010001000100010001000100010001000100010001000100010001000100010001000100010001000100010001000100010001000100010001000100010001000100010001000100010001000100010001000100010001000100010001000100010001000100010001000100010001000100010001000100010001000100010001000100010001000100010001000100010001000100010001000100010001000100010001000100010001000100010001000100010001000100010001000100010001000100010001000100010001000100010001000100</data>
          <extradata>1111111111111111T111111111111111111111111111111111111111111111111111111111111111111111111111111111111111111111111111111111111111</extradata>
        </log>
      </trigger>
    </signal_set>
  </instance>
  <mnemonics/>
  <static_plugin_mnemonics/>
</session>
